<?xml version="1.0" encoding="utf-8"?>
<!-- Generator: Adobe Illustrator 16.0.4, SVG Export Plug-In . SVG Version: 6.00 Build 0)  -->
<!DOCTYPE svg PUBLIC "-//W3C//DTD SVG 1.1 Tiny//EN" "http://www.w3.org/Graphics/SVG/1.1/DTD/svg11-tiny.dtd">
<svg version="1.1" baseProfile="tiny" id="Capa_1" xmlns="http://www.w3.org/2000/svg" xmlns:xlink="http://www.w3.org/1999/xlink"
	 x="0px" y="0px" width="528.899px" height="528.899px" viewBox="0 0 528.899 528.899" xml:space="preserve">
<g>
	<path fill="#007BFF" d="M328.883,89.125l107.59,107.589l-272.34,272.339L56.604,361.465L328.883,89.125z M518.114,63.177
		l-47.982-47.981c-18.543-18.543-48.65-18.543-67.258,0l-45.961,45.961l107.59,107.59l53.611-53.611
		C532.495,100.753,532.495,77.559,518.114,63.177z M0.3,512.69c-1.958,8.812,5.998,16.709,14.811,14.564l119.891-29.068
		L27.473,390.596L0.3,512.69z"/>
</g>
</svg>
